{
  "data": [
    {
      "id": 1,
      "title": "hello",
      "user": {
        "id": 1,
        "name": "namo"
      }
    },
    {
      "id": 2,
      "title": "hello",
      "user": {
        "id": 2,
        "name": "namo"
      }
    },
    {
      "id": 3,
      "title": "hello",
      "user": {
        "id": 3,
        "name": "namo"
      }
    },
    {
      "id": 4,
      "title": "hello",
      "user": {
        "id": 4,
        "name": "namo"
      }
    }
  ],
  "paging" : {
      "currentPage" : 0,
      "currentStartIndex" : 0,
      "itemsPerPage" : 4,
      "totalItems" : 12,
      "totalPages" : 3
  }
}
